<?xml version="1.0" encoding="utf-8"?>
<!-- Generator: Adobe Illustrator 15.0.0, SVG Export Plug-In  -->
<!DOCTYPE svg PUBLIC "-//W3C//DTD SVG 1.1//EN" "http://www.w3.org/Graphics/SVG/1.1/DTD/svg11.dtd" [
	<!ENTITY ns_flows "http://ns.adobe.com/Flows/1.0/">
]>
<svg version="1.1"
	 xmlns="http://www.w3.org/2000/svg" xmlns:xlink="http://www.w3.org/1999/xlink" xmlns:a="http://ns.adobe.com/AdobeSVGViewerExtensions/3.0/"
	 x="0px" y="0px" width="50px" height="50px" viewBox="-1.75 -1.769 50 50" enable-background="new -1.75 -1.769 50 50"
	 xml:space="preserve">
<defs>
</defs>
<path fill="#571F1F" d="M24.419,30.031c-0.179-1.574-0.554-3.025-1.127-4.354l-0.065,0.039c0.26-0.229,0.517-0.468,0.767-0.724
	c0.229-0.232,0.438-0.474,0.645-0.716l-0.005,0.009c1.266,0.566,2.684,0.955,4.253,1.169l0.963-1.703
	c-0.92-1.265-1.949-2.323-3.084-3.177c0.209-0.612,0.37-1.246,0.481-1.901v0.084c1.374-0.157,2.793-0.544,4.256-1.161V15.63
	c-1.426-0.629-2.843-1.023-4.256-1.18v0.039c-0.108-0.671-0.277-1.316-0.492-1.941c1.095-0.833,2.122-1.88,3.075-3.145l-0.964-1.704
	c-1.533,0.182-2.947,0.563-4.243,1.144c-0.199-0.234-0.408-0.463-0.629-0.688c-0.221-0.226-0.445-0.44-0.674-0.644l0.019,0.011
	c0.554-1.293,0.934-2.742,1.144-4.345l-1.667-0.983c-1.236,0.938-2.271,1.987-3.106,3.146c-0.612-0.222-1.243-0.394-1.899-0.506
	c-0.155-1.398-0.532-2.841-1.133-4.331H14.75c-0.615,1.455-1,2.903-1.154,4.344c-0.599,0.107-1.179,0.264-1.74,0.462
	c-0.819-1.133-1.854-2.191-3.104-3.176L7.083,3.118C7.261,4.693,7.637,6.145,8.21,7.473l0.011-0.007
	C7.973,7.685,7.729,7.913,7.49,8.155C7.26,8.391,7.049,8.634,6.843,8.879c-1.265-0.563-2.68-0.952-4.246-1.166L1.635,9.419
	c0.921,1.267,1.952,2.326,3.092,3.182c-0.206,0.605-0.363,1.231-0.471,1.878v-0.087C2.882,14.548,1.463,14.936,0,15.552v1.968
	c1.425,0.628,2.843,1.022,4.255,1.18v-0.038c0.11,0.683,0.282,1.34,0.503,1.976c-1.108,0.836-2.143,1.892-3.105,3.168l0.963,1.704
	c1.543-0.183,2.963-0.566,4.263-1.151L6.818,24.25c0.213,0.253,0.435,0.502,0.672,0.744c0.292,0.3,0.596,0.572,0.904,0.832
	l-0.269-0.159c-0.554,1.294-0.935,2.742-1.144,4.345l1.667,0.984c1.246-0.947,2.288-2.006,3.128-3.176l-0.071-0.043
	c0.627,0.233,1.274,0.415,1.949,0.533c0.154,1.398,0.533,2.846,1.135,4.334h1.925c0.615-1.451,0.999-2.896,1.154-4.338
	c0.612-0.107,1.203-0.266,1.776-0.471c0.82,1.135,1.855,2.193,3.107,3.18L24.419,30.031z M20.22,21.141
	c-1.237,1.264-2.726,1.896-4.468,1.896c-1.742,0-3.232-0.632-4.468-1.896c-1.238-1.263-1.857-2.785-1.857-4.565
	c0-1.78,0.62-3.304,1.857-4.565c1.236-1.264,2.726-1.896,4.468-1.896c1.743,0,3.231,0.632,4.468,1.896
	c1.238,1.262,1.857,2.785,1.857,4.565C22.077,18.355,21.458,19.877,20.22,21.141z M43.041,10.823c0.056-0.357,0.08-0.707,0.08-1.051
	c1.159-0.632,2.286-1.463,3.379-2.509l-0.682-1.84c-1.484-0.071-2.886,0.065-4.21,0.395c-0.438-0.505-0.933-0.916-1.483-1.232
	c0.047-1.35-0.096-2.771-0.437-4.269L37.787,0c-0.801,1.276-1.387,2.583-1.77,3.917c-0.638,0.13-1.25,0.375-1.834,0.733
	c-1.115-0.708-2.381-1.289-3.812-1.731l-1.219,1.522c0.681,1.347,1.496,2.518,2.437,3.523c-0.09,0.292-0.166,0.593-0.217,0.91
	c-0.058,0.357-0.08,0.708-0.08,1.051c-1.161,0.632-2.288,1.463-3.381,2.508l0.682,1.84c1.48,0.071,2.878-0.064,4.197-0.392
	c0.446,0.514,0.954,0.929,1.519,1.248c-0.043,1.338,0.099,2.749,0.438,4.234l1.9,0.317c0.8-1.274,1.385-2.578,1.766-3.909
	c0.621-0.131,1.217-0.373,1.786-0.722c1.122,0.715,2.397,1.3,3.838,1.747l1.218-1.522c-0.681-1.348-1.496-2.52-2.438-3.525
	C42.91,11.452,42.988,11.146,43.041,10.823z M39.292,10.198c-0.092,0.587-0.377,1.055-0.853,1.404
	c-0.474,0.348-0.999,0.476-1.574,0.38c-0.575-0.096-1.033-0.387-1.375-0.872c-0.342-0.486-0.464-1.021-0.37-1.608
	c0.093-0.588,0.378-1.057,0.853-1.405c0.476-0.349,1.001-0.474,1.574-0.378c0.576,0.096,1.034,0.385,1.375,0.871
	C39.265,9.073,39.389,9.61,39.292,10.198z M40.086,30.121c0.821-1.076,1.526-2.328,2.111-3.764l-1.362-1.392
	c-1.392,0.563-2.625,1.282-3.704,2.147c-0.618-0.369-1.277-0.644-1.971-0.824c-0.167-1.352-0.532-2.744-1.112-4.18h-1.925
	c-0.594,1.401-0.967,2.796-1.132,4.186c-0.701,0.184-1.363,0.465-1.986,0.842c-1.049-0.83-2.266-1.545-3.661-2.139l-1.362,1.391
	c0.549,1.414,1.246,2.664,2.087,3.762c-0.371,0.648-0.645,1.336-0.823,2.064c-1.307,0.172-2.653,0.543-4.041,1.127v1.969
	c1.362,0.602,2.717,0.979,4.066,1.15c0.186,0.723,0.47,1.404,0.848,2.045c-0.81,1.068-1.506,2.307-2.086,3.729l1.362,1.393
	c1.388-0.563,2.616-1.279,3.693-2.141c0.628,0.369,1.297,0.641,2.003,0.814c0.167,1.346,0.532,2.732,1.11,4.162h1.925
	c0.597-1.408,0.971-2.809,1.135-4.205c0.688-0.189,1.34-0.475,1.953-0.85c1.049,0.832,2.271,1.551,3.673,2.146l1.361-1.391
	c-0.554-1.428-1.261-2.691-2.111-3.797c0.352-0.627,0.612-1.291,0.785-1.996c1.332-0.166,2.705-0.543,4.122-1.141v-1.967
	c-1.389-0.613-2.77-1-4.147-1.164C40.718,31.4,40.445,30.74,40.086,30.121z M35.973,37.256c-0.805,0.822-1.773,1.232-2.906,1.232
	s-2.102-0.41-2.905-1.232c-0.806-0.822-1.207-1.813-1.207-2.971s0.401-2.146,1.207-2.967c0.804-0.822,1.772-1.234,2.905-1.234
	s2.102,0.412,2.906,1.234c0.805,0.82,1.207,1.809,1.207,2.967S36.777,36.434,35.973,37.256z"/>
</svg>
